767415 378829 509
217533 392721 443
670513 476062 509
350198 888601 525
417987 159932 449
699859 269232 509
774733 79392 509
756214 546576 509
120280 137587 344
934149 959022 507
228791 670563 509
939459 34065 525
207758 706292 509
640393 567805 509
490048 777134 509
127480 951729 525
518183 544051 439
41485 605862 470
429345 721305 509
271901 999144 525
938644 644983 525
915436 268966 525
353900 750574 509
581770 562496 421
502586 971662 525
226047 60328 386
459853 270302 449
843394 844429 357
252913 430497 449
142246 688328 509
934120 676124 525
630654 967668 525
230708 673017 509
36134 533454 470
403739 956028 525
127734 338089 443
877078 655893 525
431764 657671 509
33618 568494 470
93874 218869 386
288000 656226 509
624523 224281 470
582896 100812 470
427317 444072 400
582206 425958 470
217728 639328 509
171203 980777 525
162556 888782 525
229535 636788 509
97146 83223 333
300580 840266 525
488394 401562 449
206948 760591 509
836580 883149 525
285467 887773 525
984346 2901 525
786209 171326 509
13999 104356 351
748444 462508 509
999286 999775 396
572035 169847 470
409942 326325 441
28144 673534 509
413745 364920 449
296531 932694 525
962927 245559 525
418763 305530 449
159402 927526 525
779570 856655 525
939046 551733 525
322468 885415 525
214862 341310 443
119051 441619 449
677401 744205 504
485064 959280 525
332971 817791 509
79427 596801 470
860600 585106 525
123711 73864 354
208500 376806 443
796380 141659 509
984380 153764 525
160622 727853 509
22138 512689 470
305704 159114 443
951412 899057 507
193204 799162 509
145077 686070 509
322921 677136 509
535854 317515 470
43484 4828 324
482342 969929 525
644642 116964 509
285551 189822 443
690389 50680 509
137106 28399 354
377907 349440 423
695505 4914 509
247958 820720 509
294579 561157 470
128637 690527 509
823677 847055 525
508829 256316 449
559846 31453 470
149270 225094 386
560592 928702 525
936584 522138 525
381030 527966 470
156046 723310 509
532928 185740 470
285585 176483 443
902084 822693 525
428409 388678 449
225421 255460 443
954434 910556 507
707836 707580 274
884914 79173 525
814105 828268 450
55745 507208 449
162325 915114 525
847244 909730 445
334977 238791 407
516219 351336 470
793950 623634 509
483119 906553 525
709372 970450 525
736802 19512 509
759037 808621 468
126686 753904 509
863432 476890 525
42773 257499 443
375626 422224 449
275195 704591 509
440909 169867 449
895249 723545 525
436417 984669 525
816133 109772 509
149403 673676 509
552008 726682 509
348126 81002 443
178788 458912 449
922529 978587 507
889252 58408 525
874842 696133 525
848395 932645 476
485525 580980 470
836332 948532 525
259369 332197 407
13281 728084 509
131472 305426 443
514335 550530 452
474514 936540 525
860981 161867 525
5553 232625 443
356812 501391 449
347760 358534 379
343007 833393 509
646438 694604 442
681837 543903 509
655741 556320 509
375702 883946 525
166873 753063 509
832209 33566 509
445349 614848 470
288118 752200 509
406712 181057 443
80887 329795 443
562486 92951 470
531821 66055 470
253195 764291 509
325245 847562 525
665457 981025 525
535071 172090 470
576030 179266 470
302755 921726 525
970366 172907 525
417425 492512 444
473031 240307 449
258342 582870 470
401202 818019 509
465997 37644 449
491386 469411 413
707238 610698 509
61769 581347 470
215005 264010 443
776665 379321 509
650728 188077 509
410087 320993 449
668317 874200 525
83697 24329 351
160489 670047 509
335868 232073 407
353066 69186 443
165098 371739 443
15784 57412 340
750966 512317 509
508488 752007 509
280794 589182 470
28471 84088 351
152539 879044 525
