194241 213389 373
193251 99163 383
606385 537040 452
384879 25164 443
374373 472150 449
178165 942336 525
642015 215894 509
188504 742285 509
457028 111970 449
764965 6354 509
973783 65806 525
745797 507904 509
519933 998793 525
636065 583457 509
347868 149806 443
260454 454108 449
669033 604860 509
996170 27134 525
121177 478491 449
763999 738705 424
520936 501844 470
370402 674895 509
873050 504733 525
201775 125385 383
396417 15338 443
709603 510477 509
556926 615526 447
523279 84486 470
717299 508191 509
12257 173221 383
450922 51783 449
506584 5957 449
934603 631213 525
309125 879059 525
45001 395181 443
561162 629907 509
364761 609334 470
197490 904764 525
516215 724422 509
396976 247053 441
107014 71729 354
136894 334484 443
939254 681724 525
492672 939533 525
821369 156736 509
336577 772319 509
541633 115099 470
17874 525325 470
994497 407791 525
418458 345712 449
596001 820460 509
8110 675538 509
683401 660386 442
963747 735187 525
522922 103428 470
820701 501124 509
822394 508992 509
994965 760197 525
393534 317144 441
261340 543776 470
47607 971634 525
612797 665905 509
218781 874374 525
928959 989710 507
359325 479343 449
827842 652042 504
17163 669863 509
167143 972148 525
661160 404466 509
328205 120944 443
899050 655161 525
641717 484806 509
769133 656602 504
902682 861716 445
82433 860738 525
622686 106320 470
134792 249876 443
416590 956797 525
936233 399499 525
96810 28223 351
640815 436259 509
462329 769235 509
611645 428855 470
258346 184353 443
410876 520740 470
574130 369971 470
478147 118609 449
790956 893098 525
394972 623764 470
137621 455607 449
665032 860492 525
390580 961984 525
575313 755419 509
482192 151661 449
137633 518037 470
352148 445222 449
392447 347367 436
762341 423710 509
870394 446748 525
380121 163474 443
919464 173479 525
491165 191581 449
594784 953641 525
774312 279236 509
857063 807583 525
814417 889951 525
895462 59103 525
384918 344196 441
626474 325641 509
457775 793068 509
989380 992179 352
252515 166076 443
595790 951072 525
924721 674387 525
920709 306964 525
766523 968080 525
131734 447598 449
868638 491560 525
142452 278790 443
858507 392800 525
970556 346356 525
425375 187883 449
899755 213799 525
311219 630077 509
331510 771975 509
458801 224106 449
227567 651638 509
736105 32610 509
134907 634659 509
235426 457353 449
694943 760840 504
724844 597486 509
173880 208372 373
658314 284896 509
187860 349477 443
86011 611128 470
530887 775091 509
142454 487355 449
530052 979013 525
848168 971092 507
94350 561978 470
361100 228399 443
375936 339035 441
419287 992277 525
774414 944646 525
205526 556754 470
792312 794599 437
737816 698158 504
399894 898101 525
663077 812756 504
799312 663388 504
205649 121683 383
553799 225588 470
538343 463239 470
368614 165816 443
543974 995327 525
349312 252976 441
292495 373708 441
219834 811243 509
53415 137019 354
639809 141001 509
855677 142511 525
89239 745664 509
217676 383670 443
35048 356387 443
494495 177680 449
974110 893228 507
290217 939202 525
775441 885549 525
469485 932026 525
780787 549983 509
977479 324302 525
327167 334971 353
977804 174131 525
136986 910611 525
309984 249472 407
744069 711376 424
633433 649035 416
156456 466906 449
853820 655405 525
528660 807468 509
485295 438690 444
893661 531840 525
926037 645398 525
240645 374420 441
920789 438851 525
617768 22 470
242301 561974 470
859308 796726 525
711352 126319 509
570622 405196 470
725086 457401 509
16521 872392 525
592667 791799 509
282587 168080 443
268566 280537 407
188586 641066 509
384912 483144 449
649776 907328 525
490078 849793 525
