97249 881888 525
442368 647741 509
719063 32916 509
623437 144462 470
43672 690063 509
994490 273309 525
727470 601832 509
561773 805956 509
402591 172609 443
992866 521893 525
407610 860514 525
963264 683693 525
337125 812188 509
980483 671921 525
493003 564658 470
995197 645878 525
198463 781313 509
423832 742472 509
167016 17126 383
456795 551986 470
596565 469665 470
477514 278074 449
872442 226990 525
521919 18673 470
340420 804536 509
707193 23325 509
52832 161443 383
954591 442057 525
319391 277039 389
247438 489519 449
755718 589613 509
943301 94926 525
519231 789062 509
608790 882565 525
406319 902841 525
15222 374230 443
643755 533555 509
55123 645735 509
799505 891140 525
19739 984024 525
715356 628100 504
646391 132901 509
932987 517928 525
712744 926670 525
346534 649535 509
165009 165584 321
573132 25567 470
816408 375174 509
971791 552021 525
611922 792587 509
805361 856485 525
405906 563414 470
574543 204384 470
505024 742778 509
45320 500596 449
562384 654885 509
269920 57604 443
839830 781104 525
266019 8186 443
166099 638582 509
597754 861078 525
840828 156128 525
898854 839755 445
762380 651505 504
868096 418046 525
621860 943974 525
675462 297567 509
253629 134663 443
333084 520374 470
235256 987655 525
618056 189660 470
462060 481455 413
869338 512348 525
429161 466361 444
194436 376078 443
782523 228385 509
938526 820353 525
485508 140791 449
263891 874077 525
560022 790604 509
668370 835162 504
891150 907448 445
189502 275475 443
845484 444920 525
470329 699940 509
218145 990576 525
754672 89456 509
660919 864704 525
155461 805893 509
102194 686372 509
299226 205222 443
209032 152437 383
669221 451928 509
159650 120914 383
412329 139005 449
256382 700646 509
806768 376682 509
886276 934260 476
384667 144144 443
845808 327648 525
929325 882708 476
232709 307226 407
949868 32403 525
27444 73663 340
363562 529530 470
182619 961764 525
423201 830902 509
144582 441558 449
764970 351995 509
703514 403041 509
434806 630017 509
900769 204625 525
946751 801239 525
285230 566531 470
93565 736098 509
23864 885829 525
694827 933769 525
377358 671652 509
165508 924293 525
748502 779503 468
723212 120865 509
166675 506972 449
602258 72490 470
849614 92606 525
582853 956663 525
474758 180081 449
535482 698865 509
983428 183486 525
233776 774680 509
462767 329308 449
2320 161312 383
289058 698245 509
531011 363423 470
629047 623113 509
68079 486471 449
764067 649123 504
412787 18828 449
13422 985441 525
418182 751759 509
185085 627677 509
254767 737708 509
272577 288130 389
821547 340381 509
423784 544015 470
598510 837053 509
206246 677782 509
487143 359251 449
838495 616565 525
553479 869361 525
859087 451648 525
305949 444462 449
871545 321508 525
741777 254453 509
777566 390787 509
219719 413291 449
360633 520676 470
479037 54436 449
375709 860470 525
191348 339922 443
140153 955128 525
785166 489599 509
563165 975805 525
944332 82038 525
480608 799754 509
609291 818383 509
206684 108611 383
702865 427690 509
579257 90632 470
478535 579001 470
19196 789542 509
322131 460067 449
243892 949308 525
253937 254555 288
677278 861994 525
280531 339298 389
677878 495963 509
472473 324057 449
612543 439633 470
824416 546615 509
395528 758418 509
909540 930324 476
475267 579945 470
523823 195452 470
534027 236399 470
782862 973016 525
897919 683801 525
504577 954413 525
593409 285725 470
855095 964506 507
428776 590352 470
746644 21820 509
966746 410037 525
835535 461796 509
330496 387519 441
38550 291881 443
851749 700963 525
620505 162200 470
209477 97315 383
714326 549090 509
324343 338563 384
673353 605544 509
365552 705427 509
974296 693269 525
684610 353960 509
437705 579887 470
516362 66088 470
769167 475626 509
745736 704534 504
