285616 91032 443
110675 370420 443
762819 221670 509
552116 763891 509
220876 645946 509
754671 74075 509
357328 881713 525
85233 360796 443
771269 86240 509
516001 211969 470
346698 134813 443
810052 943910 525
332472 613148 470
476550 938131 525
202114 807359 509
193998 913445 525
180575 652633 509
686739 357404 509
768004 531295 509
866115 578748 525
312886 167325 443
471242 122150 449
351334 986558 525
909232 940219 507
870666 145059 525
210985 372908 443
623108 78151 470
944793 744129 525
96000 404360 443
647726 925671 525
878083 955872 507
919954 625708 525
144741 523349 470
561560 663383 509
566556 759641 509
356918 804177 509
882398 149152 525
946609 625436 525
519900 259868 470
723246 757277 424
561159 524419 452
960051 9623 525
678166 866558 525
152036 905729 525
676993 399812 509
53922 986335 525
835743 856835 525
961604 128854 525
624183 677128 509
106279 107835 323
948227 207700 525
761103 680287 504
431132 126896 449
78292 530340 470
335083 369286 441
835678 31286 509
876168 906765 445
146922 926309 525
286590 591633 470
855707 37884 525
190218 405523 443
25874 462526 449
801163 271928 509
568740 208341 470
763073 705104 424
767973 390322 509
589562 450025 470
882290 237092 525
42666 760114 509
29547 855287 525
162635 864121 525
235616 294132 407
334146 859337 525
545767 37403 470
244762 800131 509
503252 483892 426
721932 181573 509
305082 488786 449
848214 883655 432
756228 852564 525
33892 695262 509
912507 621128 525
803521 498299 509
511880 867423 525
943897 781159 525
836407 753139 468
201308 695905 509
659281 996437 525
114933 817676 509
896221 970649 507
42241 660758 509
742251 334540 509
947356 215336 525
826051 358883 509
711566 144414 509
354229 850501 525
399611 183605 443
149694 162253 383
945058 351928 525
818183 125508 509
389971 176719 443
867262 17309 525
530940 634587 509
529475 235276 470
60113 200611 383
22234 97504 351
783392 556103 509
213982 204364 373
503825 344897 449
876245 79489 525
496899 597144 470
79989 968614 525
515837 431453 470
486470 612194 470
949010 559257 525
209612 852517 525
710271 563236 509
44797 154863 375
610790 209211 470
35263 134446 354
181613 768619 509
239998 720226 509
884323 393347 525
557471 747645 509
727526 555487 509
729185 875065 525
784784 953706 525
470401 888992 525
606585 899702 525
1168 623587 470
753041 100712 509
472691 143723 449
35224 958678 525
473624 569368 470
772108 397530 509
704013 673223 442
350164 514598 470
116817 965460 525
489117 47852 449
703858 623774 509
252873 465687 449
341257 434046 449
592290 603080 403
631896 32513 509
485398 108831 449
410448 997669 525
869736 166118 525
687598 836011 504
634660 695503 442
41119 469626 449
203162 847261 525
685462 99456 509
699003 97159 509
256040 186239 443
3380 544284 470
367136 954564 525
717834 24285 509
752155 56576 509
301912 547201 470
863552 396256 525
362114 885357 525
532015 227470 470
160126 11317 383
781894 986012 525
242584 881560 525
72044 485054 449
535511 543959 408
414404 921185 525
703008 726833 504
315762 316212 322
785840 776634 437
481872 392408 449
697370 631869 442
200497 494720 449
220933 530837 470
976394 458457 525
725014 46725 509
856426 202186 525
50952 11702 324
460137 918053 525
633503 43324 509
258850 126252 443
409382 835438 509
894132 234624 525
638936 908102 525
71798 726621 509
858283 18025 525
540487 518338 439
173010 670764 509
272233 290807 389
757579 20130 509
439908 70983 449
436723 394911 449
378075 672121 509
418096 335113 449
815267 721166 468
695452 709303 504
891474 387109 525
136923 23061 354
636332 873634 525
